{
  "projectId": "9bdrfe",
  "baseUrl": "https://www.baidu.com",
  "fileServerFolder": "e2e",
  "integrationFolder": "e2e/integration",
  "pluginsFile": "e2e/plugins/index.js",
  "supportFile": "e2e/support//index.js",
  "fixturesFolder": "e2e/fixtures",
  "screenshotsFolder": "e2e/screenshots",
  "reporter": "mochawesome",
  "reporterOptions": {
    "reportDir":"e2e/results",
    "overwrite": false,
    "html": true,
    "json": true
  }
}
